[
    {
        "idMunicipio":1,"nbMunicipio":"Miguel Hidalgo",
        "localidades":[
            {"idLocalidad":1,"nbLocalidad":"10 DE ABRIL"},
            {"idLocalidad":2,"nbLocalidad":"16 DE SEPTIEMBRE"},
            {"idLocalidad":3,"nbLocalidad":"5 DE MAYO"},
            {"idLocalidad":4,"nbLocalidad":"AHUEHUETES ANAHUAC"},
            {"idLocalidad":5,"nbLocalidad":"AGRICULTURA"}
        ]
    },
    {
        "idMunicipio":2,"nbMunicipio":"Venustiano Carranza",
        "localidades":[
            {"idLocalidad":1,"nbLocalidad":"10 DE MAYO"},
            {"idLocalidad":2,"nbLocalidad":"20 DE NOVIEMBRE"},
            {"idLocalidad":3,"nbLocalidad":"AARON SAENZ"},
            {"idLocalidad":4,"nbLocalidad":"ADOLFO LOPEZ MATEOS"},
            {"idLocalidad":5,"nbLocalidad":"AERONAUTICA MILITAR"}
        ]
    },
    {
        "idMunicipio":3,"nbMunicipio":"Tláhuac",
        "localidades":[
            {"idLocalidad":1,"nbLocalidad":"AGRICOLA METROPOLITANA"},
            {"idLocalidad":2,"nbLocalidad":"AMPLIACION LOS OLIVOS 1A SECC"},
            {"idLocalidad":3,"nbLocalidad":"AMPLIACION SANTA CATARINA"},
            {"idLocalidad":4,"nbLocalidad":"APOLOCALCO"},
            {"idLocalidad":5,"nbLocalidad":"ARBOLEDAS"}
        ]
    },
    {
        "idMunicipio":4,"nbMunicipio":"Xochimilco",
        "localidades":[
            {"idLocalidad":1,"nbLocalidad":"ARCOS DEL SUR"},
            {"idLocalidad":2,"nbLocalidad":"ALQUICIRAS"},
            {"idLocalidad":3,"nbLocalidad":"AMPLIACION NATIVITAS"},
            {"idLocalidad":4,"nbLocalidad":"AMPLIACION SAN MARCOS NORTE"},
            {"idLocalidad":5,"nbLocalidad":"AMPLIACION TEPEPAN"}
        ]
    },
    {
        "idMunicipio":5,"nbMunicipio":"Tlalpan",
        "localidades":[
            {"idLocalidad":1,"nbLocalidad":"ARBOLEDAS DEL SUR"},
            {"idLocalidad":2,"nbLocalidad":"ARENAL DE GUADALUPE"},
            {"idLocalidad":3,"nbLocalidad":"BARRIO LA FAMA"},
            {"idLocalidad":4,"nbLocalidad":"BARRIO NIÑO JESUS"},
            {"idLocalidad":5,"nbLocalidad":"BOSQUE DEL PEDREGAL"}
        ]
    }
]