[
    {
        "idTipoProducto": 1,
        "cdTipoProducto": "HELG",
        "nbTipoProducto": "HELADOS",
        "bgColor": "#00B8D4",
        "color": "#fff",
        "nuSize": "30%",
        "lbImagen": "static/dist/img/mainstock/helado-gourmet.png",
        "isActive": false
    },
    {
        "idTipoProducto": 2,
        "cdTipoProducto": "PAL",
        "nbTipoProducto": "PALETAS",
        "bgColor": "#78909C",
        "color": "#fff",
        "nuSize": "17%",
        "lbImagen": "static/dist/img/mainstock/paletas.png",
        "isActive": false
    },
    {
        "idTipoProducto": 3,
        "cdTipoProducto": "MAL",
        "nbTipoProducto": "MALTEADAS",
        "bgColor": "#7C4DFF",
        "color": "#fff",
        "nuSize": "17%",
        "lbImagen": "static/dist/img/mainstock/malteadas.png",
        "isActive": false
    },
    {
        "idTipoProducto": 4,
        "cdTipoProducto": "CAF",
        "nbTipoProducto": "CAFÉS",
        "bgColor": "#8D6E63",
        "color": "#fff",
        "nuSize": "17%",
        "lbImagen": "static/dist/img/mainstock/cafe.png",
        "isActive": false
    },
    {
        "idTipoProducto": 5,
        "cdTipoProducto": "BEB",
        "nbTipoProducto": "BEBIDAS",
        "bgColor": "#ff5252",
        "color": "#fff",
        "nuSize": "17%",
        "lbImagen": "static/dist/img/mainstock/bebidas.png",
        "isActive": false
    },
    {
        "idTipoProducto": 6,
        "cdTipoProducto": "LAC",
        "nbTipoProducto": "LÁCTEOS",
        "bgColor": "#fff",
        "color": "#55565a",
        "nuSize": "17%",
        "lbImagen": "static/dist/img/mainstock/bebidas.png",
        "isActive": false
    }
]